"CZAS";"SO2 Dwutlenek siarki poz. dop.: 350 [µg/m3]";"NO2 Dwutlenek azotu poz. dop.: 200 [µg/m3]";"NOx Tlenki azotu  [µg/m3]";"NO Tlenek azotu  [µg/m3]";"PM10 Pył zawieszony PM10  [µg/m3]"
"1:00";"4,7";"34";"140";"70";"172"
"2:00";"3,7";"34";"112";"51";"131"
"3:00";"6,8";"39";"66";"18";"82"
"4:00";"13,3";"40";"57";"11";"66"
"5:00";"18,0";"40";"59";"12";"55"
"6:00";"11,9";"41";"58";"11";"40"
"7:00";"11,4";"42";"74";"21";"46"
"8:00";"13,9";"43";"77";"23";"51"
"9:00";"11,4";"32";"48";"10";"31"
"10:00";"13,3";"26";"36";"7";"23"
"11:00";"7,1";"15";"20";"3";"29"
"12:00";"2,8";"12";"15";"1";"21"
"13:00";"4,4";"14";"17";"2";"20"
"14:00";"3,6";"14";"17";"2";"24"
"15:00";"4,6";"17";"19";"1";"21"
"16:00";"7,4";"24";"26";"1";"17"
"17:00";"9,5";"37";"41";"2";"23"
"18:00";"3,6";"26";"27";"1";"26"
"19:00";"7,7";"29";"32";"1";"32"
"20:00";"4,1";"12";"13";"1";"12"
"21:00";"3,1";"10";"10";"0";"11"
"22:00";"3,5";"11";"11";"0";"18"
"23:00";"2,6";"9";"10";"0";"16"
"24:00";"3,1";"8";"8";"0";"11"
"wartość średnia";"7,3 (poz. dop.: 125 µg/m3)";"25";"41";"10";"41 (poz. dop.: 50 µg/m3)"
"minimum";"2,6";"8";"8";"0";"11"
"maksimum";"18,0";"43";"140";"70";"172"